[
    {
        "content": "tentacle_tea", 
        "type": "image"
    }, 
    {
        "content": [
            "Hi.", 
            "Sit down, have a meal."
        ], 
        "type": "text"
    }, 
    {
        "content": [
            "This isn't the best prhase to start with,", 
            "but i'm honestly warning you:"
        ], 
        "type": "text"
    }, 
    {
        "content": [
            "This.", 
            "Game.", 
            "Is.", 
            "Undercooked.", 
            "Shit."
        ], 
        "type": "text"
    }, 
    {
        "content": [
            "Wanna skip to the action or read the prologue?", 
            "There might be some porn in it!"
        ], 
        "type": "text"
    }, 
    {
        "content": {
            "buttons": [
                {
                    "content": "prologue_0", 
                    "text": "Ayup", 
                    "screen": "story", 
                    "type": "transfer", 
                    "flag_change": {
                        "prologue_read": true
                    }
                }, 
                {
                    "content": "test", 
                    "text": "N-nope!", 
                    "screen": "map", 
                    "type": "transfer", 
                    "flag_change": {
                        "prologue_read": true
                    }
                }, 
                {
                    "content": {
                        "difficulcy": 3, 
                        "on_loss": {
                            "content": {}, 
                            "screen": "mmenu", 
                            "type": "transfer"
                        }, 
                        "on_win": {
                            "content": "test", 
                            "screen": "map", 
                            "type": "transfer"
                        }
                    }, 
                    "text": "Pew! Pew! Pew!", 
                    "screen": "invaders", 
                    "type": "transfer"
                }
            ], 
            "text": "Read prologue?"
        }, 
        "screen": "choice", 
        "type": "transfer"
    }
]